992
-872 -112
-416 -440 -72 -8 24
-240 464 -168 96
-768 -216
-88 712 -24 144
992
-192 -592 192
992
-704 -232 40
992
-368 -144 -64 32 -168 176
-464 -184 -120 -200
-120 56 -296 496
992
992
-704 -24 248
-120 320 -456 72
992
136 -464 -280 88
-552 360 -32 24
992
992
-752 176 -16 24
