-8 976
-8 976
-80 904
-40 944
-16 968
-80 -80 816
-8 -8 960
-40 -40 -80 808
992
-32 -32 -32 -32 -32 792
-40 32 -80 -40 768
-40 -32 -80 -40 768
-664 -112 -160 32
992
-80 -80 -80 -80 -80 -80 -80 -80 -80 -80 -80 24
-80 80 -80 80 -80 80 -80 80 -80 80 -80 24
-80 -80 -80 -80 -80 -80 -80 -80 -80 -80 -80 24
872 -80 24
-168 -80 728
-992
-992
-960 -24
-32 -24 -32 880
