40 -16 -8 904
992
992
-16 -16 -16 -16 -16 -16 848
40 -32 24 -16 848
56 -48 -40 -16 800
992
104 -8 864
-16 -16 944
40 -48 888
8 -8 -8 -8 8 -16 888
-40 80 -96 752
104 -40 832
-16 -16 -8 -16 -16 -16 856
80 -80 816
128 -16 -16 16 -16 760
16 -16 -16 64 -24 24 -24 -24 720
232 -48 696
-152 -16 -16 16 -16 -16 712
992
40 -16 -40 -48 -56 752
-104 64 -80 720
64 -16 -16 -16 848
