-800 184
80 -80 816
-160 824
-240 -56 680
992
48 -24 904
992
-136 -776 64
-136 -776 64
992
992
-120 -112 -104 -96 -88 -80 344
-16 -24 -56 -64 -72 -16 -16 -8 -8 -8 -8 -8 -8 -8 560
-992
992
-240 -240 -240 248
-280 -360 336
-992
40 -8 928
-16 -16 944
-8 64 -40 -48 800
-320 8 -328 312
-8 -16 -24 -32 -40 -48 776
-360 -160 -8 440
-416 568
-144 -136 696
160 -88 56 -40 -48 -64 488
-16 32 -48 872
-8 -8 -8 8 -8 -8 8 -8 -8 -8 -8 -8 -8 784
