-8 976
-8 -16 952
-8 16 -24 920
-24 16 -8 -24 -40 -40 792
-32 8 -24 -32 864
992
-120 -40 -520 -8 -88 -24 144
512 -8 -16 16 -24 -32 -24 -32 264
248 -24 -16 -432 240
472 -88 416
-64 920
40 -64 80 -104 672
-72 -16 -16 -16 -40 -16 -64 -32 -40 -8 -80 -56 -16 -64 -16 320
112 -56 48 -64 136 -72 80 -48 144 -72 -56 16
-48 232 -104 -400 176
176 -184 616
8 -8 368 -200 376
-400 -400 -8 160
992
-40 -24 912
