-40 944
-40 -24 912
40 -24 912
72 -24 880
-8 976
-16 -8 952
-24 16 -8 920
-32 16 -24 -24 -32 -56 760
-16 -24 16 -56 848
992
-8 -8 8 -8 928
992
104 -40 832
-8 -16 -24 -32 -40 -48 -56 -64 -72 560
168 -80 80 -80 -80 -80 376
24 -80 872
104 -40 -48 -56 712
8 -8 960
-8 -16 -8 -16 -8 -16 -8 -16 -8 -16 -8 -16 -8 736
-8 -8 -8 -8 -8 -8 -8 -8 -8 -8 -8 816
-80 -72 -64 -56 -48 -40 -32 -24 -16 -8 472
264 -24 -16 664
-8 -8 8 -8 928
-8 8 -8 -8 928
-8 -16 -24 920
152 -48 -56 -64 -72 -80 -88 -96 -104 -112 40
